%YAML 1.1
%TAG !u! tag:unity3d.com,2011:
--- !u!1045 &1
EditorBuildSettings:
  m_ObjectHideFlags: 0
  serializedVersion: 2
  m_Scenes:
  - enabled: 0
    path: Assets/Scenes/SampleScene.unity
    guid: 2cda990e2423bbf4892e6590ba056729
  - enabled: 1
    path: Assets/Scenes/unta.unity
    guid: 7e50114e6d3a4d844b0715ebd489f9b9
  - enabled: 0
    path: Assets/Scenes/unta2.unity
    guid: e82846260da88ff45a855a9fd2dcf8be
  m_configObjects: {}
