%YAML 1.1
%TAG !u! tag:unity3d.com,2011:
--- !u!78 &1
TagManager:
  serializedVersion: 2
  tags: []
  layers:
  - Default
  - TransparentFX
  - Ignore Raycast
  - 
  - Water
  - UI
  - Ground
  - Player
  - danger
  - Portal
  - Pick up
  - 
  - 
  - 
  - 
  - 
  - 
  - 
  - 
  - 
  - 
  - 
  - 
  - 
  - 
  - 
  - 
  - 
  - 
  - 
  - 
  - 
  m_SortingLayers:
  - name: player
    uniqueID: 4232949469
    locked: 0
  - name: Default
    uniqueID: 0
    locked: 0
  - name: cc
    uniqueID: 2572233097
    locked: 0
  - name: blocks
    uniqueID: 874135007
    locked: 0
  - name: New Layer
    uniqueID: 79826409
    locked: 0
